[
  1,
  2,
  3,
  4,
  4,
  5,
  6,
  1,
  2,
  3,
  4,
  5,
  6,
  1,
  2,
  3,
  4,
  5,
  6,
  1,
  2,
  3,
  3,
  4,
  5,
  6,
  1,
  2,
  3,
  4,
  6,
  4,
  6,
  14,
  14,
  14,
  14,
  14,
  14,
  14,
  14,
  14,
  14,
  14,
  14,
  14,
  14,
  14,
  14,
  14,
  14,
  14,
  14,
  14,
  14,
  14,
  14,
  14,
  14,
  14,
  14,
  14,
  14,
  14,
  14,
  14,
  14,
  8,
  14,
  1,
  1,
  1,
  2,
  3,
  4,
  5,
  6,
  6,
  6,
  6,
  7,
  6,
  6,
  6,
  5,
  5,
  5,
  5,
  4,
  3,
  2,
  1,
  0,
  0,
  0,
  0,
  0,
  0,
  1,
  14,
  14,
  14,
  14,
  14,
  14,
  14,
  14,
  14,
  14,
  14,
  14,
  14,
  14,
  14,
  14,
  14,
  14,
  14,
  14,
  14,
  14,
  14,
  14,
  14,
  14,
  14,
  14,
  14,
  14,
  14,
  14,
  6
]
