[
  14,
  2,
  3,
  4,
  4,
  5,
  6,
  14,
  14,
  14,
  14,
  14,
  14,
  14,
  14,
  14,
  14,
  14,
  14,
  14,
  14,
  14,
  14,
  14,
  14,
  14,
  14,
  14,
  14,
  14,
  14,
  14,
  6,
  12,
  11,
  10,
  10,
  9,
  8,
  7,
  14,
  14,
  14,
  10,
  14,
  9,
  8,
  14,
  14,
  14,
  14,
  10,
  9,
  8,
  7,
  14,
  14,
  14,
  14,
  14,
  7,
  14,
  14,
  14,
  14,
  14,
  14,
  14,
  14,
  1,
  1,
  1,
  2,
  3,
  4,
  5,
  6,
  6,
  6,
  6,
  7,
  6,
  6,
  6,
  5,
  5,
  5,
  5,
  4,
  3,
  2,
  1,
  0,
  0,
  0,
  0,
  0,
  0,
  1,
  13,
  13,
  13,
  12,
  11,
  10,
  9,
  8,
  7,
  7,
  7,
  7,
  7,
  7,
  7,
  7,
  8,
  8,
  8,
  9,
  10,
  10,
  11,
  12,
  13,
  15,
  15,
  15,
  15,
  15,
  13,
  13,
  6
]
