[
  {
    "keyCode": 41,
    "label": "ESC"
  },
  {
    "keyCode": 30,
    "label": "1"
  },
  {
    "keyCode": 31,
    "label": "2"
  },
  {
    "keyCode": 32,
    "label": "3"
  },
  {
    "keyCode": 33,
    "label": "4"
  },
  {
    "keyCode": 34,
    "label": "5"
  },
  {
    "keyCode": 35,
    "label": "6"
  },
  {
    "keyCode": 0,
    "label": "NO KEY",
    "verbose": "Disabled"
  },
  {
    "keyCode": 0,
    "label": "NO KEY",
    "verbose": "Disabled"
  },
  {
    "keyCode": 36,
    "label": "7"
  },
  {
    "keyCode": 37,
    "label": "8"
  },
  {
    "keyCode": 38,
    "label": "9"
  },
  {
    "keyCode": 39,
    "label": "0"
  },
  {
    "keyCode": 45,
    "label": "+"
  },
  {
    "keyCode": 46,
    "label": "\\"
  },
  {
    "keyCode": 42,
    "label": "BACKSPACE",
    "verbose": "Backspace"
  },
  {
    "keyCode": 43,
    "label": "TAB"
  },
  {
    "keyCode": 20,
    "label": "Q"
  },
  {
    "keyCode": 26,
    "label": "W"
  },
  {
    "keyCode": 8,
    "label": "E"
  },
  {
    "keyCode": 21,
    "label": "R"
  },
  {
    "keyCode": 23,
    "label": "T"
  },
  {
    "keyCode": 0,
    "label": "NO KEY",
    "verbose": "Disabled"
  },
  {
    "keyCode": 0,
    "label": "NO KEY",
    "verbose": "Disabled"
  },
  {
    "keyCode": 28,
    "label": "Y"
  },
  {
    "keyCode": 24,
    "label": "U"
  },
  {
    "keyCode": 12,
    "label": "I"
  },
  {
    "keyCode": 18,
    "label": "O"
  },
  {
    "keyCode": 19,
    "label": "P"
  },
  {
    "keyCode": 47,
    "label": "Å"
  },
  {
    "keyCode": 48,
    "label": "¨"
  },
  {
    "keyCode": 40,
    "label": "ENTER"
  },
  {
    "keyCode": 224,
    "label": "LEFT CTRL",
    "verbose": "Left Control"
  },
  {
    "keyCode": 4,
    "label": "A"
  },
  {
    "keyCode": 22,
    "label": "S"
  },
  {
    "keyCode": 7,
    "label": "D"
  },
  {
    "keyCode": 9,
    "label": "F"
  },
  {
    "keyCode": 10,
    "label": "G"
  },
  {
    "keyCode": 0,
    "label": "NO KEY",
    "verbose": "Disabled"
  },
  {
    "keyCode": 0,
    "label": "NO KEY",
    "verbose": "Disabled"
  },
  {
    "keyCode": 0,
    "label": "NO KEY",
    "verbose": "Disabled"
  },
  {
    "keyCode": 11,
    "label": "H"
  },
  {
    "keyCode": 13,
    "label": "J"
  },
  {
    "keyCode": 14,
    "label": "K"
  },
  {
    "keyCode": 15,
    "label": "L"
  },
  {
    "keyCode": 51,
    "label": "Ø"
  },
  {
    "keyCode": 52,
    "label": "Æ"
  },
  {
    "keyCode": 49,
    "label": "'"
  },
  {
    "keyCode": 225,
    "label": "LEFT SHIFT",
    "verbose": "Left Shift"
  },
  {
    "keyCode": 100,
    "label": "ALT \\",
    "verbose": "Non-US \\"
  },
  {
    "keyCode": 29,
    "label": "Z"
  },
  {
    "keyCode": 27,
    "label": "X"
  },
  {
    "keyCode": 6,
    "label": "C"
  },
  {
    "keyCode": 25,
    "label": "V"
  },
  {
    "keyCode": 5,
    "label": "B"
  },
  {
    "keyCode": 0,
    "label": "NO KEY",
    "verbose": "Disabled"
  },
  {
    "keyCode": 0,
    "label": "NO KEY",
    "verbose": "Disabled"
  },
  {
    "keyCode": 0,
    "label": "NO KEY",
    "verbose": "Disabled"
  },
  {
    "keyCode": 17,
    "label": "N"
  },
  {
    "keyCode": 16,
    "label": "M"
  },
  {
    "keyCode": 54,
    "label": ","
  },
  {
    "keyCode": 55,
    "label": "."
  },
  {
    "keyCode": 56,
    "label": "-"
  },
  {
    "keyCode": 229,
    "label": "RIGHT SHIFT",
    "extraLabel": "",
    "verbose": "Right Shift"
  },
  {
    "keyCode": 224,
    "label": "LEFT CTRL",
    "verbose": "Left Control"
  },
  {
    "keyCode": 226,
    "label": "LEFT ALT",
    "verbose": "Left Alt"
  },
  {
    "keyCode": 230,
    "label": "RIGHT ALT",
    "extraLabel": "",
    "verbose": "AltGr"
  },
  {
    "keyCode": 227,
    "label": "LEFT LINUX",
    "verbose": "Left Linux"
  },
  {
    "keyCode": 44,
    "label": "SPACE"
  },
  {
    "keyCode": 0,
    "label": "NO KEY",
    "verbose": "Disabled"
  },
  {
    "keyCode": 17495,
    "label": "3",
    "extraLabel": "MOVETO"
  },
  {
    "keyCode": 17451,
    "label": "1",
    "extraLabel": "SHIFTTO"
  },
  {
    "keyCode": 17452,
    "label": "2",
    "extraLabel": "SHIFTTO"
  },
  {
    "keyCode": 17496,
    "label": "4",
    "extraLabel": "MOVETO"
  },
  {
    "keyCode": 44,
    "label": "SPACE"
  },
  {
    "keyCode": 228,
    "label": "RIGHT CTRL",
    "verbose": "Right Control"
  },
  {
    "keyCode": 226,
    "label": "LEFT ALT",
    "verbose": "Left Alt"
  },
  {
    "keyCode": 17455,
    "label": "5",
    "extraLabel": "SHIFTTO"
  },
  {
    "keyCode": 231,
    "label": "RIGHT LINUX",
    "verbose": "Right Linux"
  },
  {
    "keyCode": 230,
    "label": "RIGHT ALT",
    "extraLabel": "",
    "verbose": "AltGr"
  }
]
