[
  {
    "keyCode": 65535,
    "label": "",
    "extraLabel": "TRANS",
    "verbose": "Transparent"
  },
  {
    "keyCode": 65535,
    "label": "",
    "extraLabel": "TRANS",
    "verbose": "Transparent"
  },
  {
    "keyCode": 65535,
    "label": "",
    "extraLabel": "TRANS",
    "verbose": "Transparent"
  },
  {
    "keyCode": 65535,
    "label": "",
    "extraLabel": "TRANS",
    "verbose": "Transparent"
  },
  {
    "keyCode": 65535,
    "label": "",
    "extraLabel": "TRANS",
    "verbose": "Transparent"
  },
  {
    "keyCode": 65535,
    "label": "",
    "extraLabel": "TRANS",
    "verbose": "Transparent"
  },
  {
    "keyCode": 65535,
    "label": "",
    "extraLabel": "TRANS",
    "verbose": "Transparent"
  },
  {
    "keyCode": 65535,
    "label": "",
    "extraLabel": "TRANS",
    "verbose": "Transparent"
  },
  {
    "keyCode": 65535,
    "label": "",
    "extraLabel": "TRANS",
    "verbose": "Transparent"
  },
  {
    "keyCode": 65535,
    "label": "",
    "extraLabel": "TRANS",
    "verbose": "Transparent"
  },
  {
    "keyCode": 65535,
    "label": "",
    "extraLabel": "TRANS",
    "verbose": "Transparent"
  },
  {
    "keyCode": 65535,
    "label": "",
    "extraLabel": "TRANS",
    "verbose": "Transparent"
  },
  {
    "keyCode": 65535,
    "label": "",
    "extraLabel": "TRANS",
    "verbose": "Transparent"
  },
  {
    "keyCode": 65535,
    "label": "",
    "extraLabel": "TRANS",
    "verbose": "Transparent"
  },
  {
    "keyCode": 65535,
    "label": "",
    "extraLabel": "TRANS",
    "verbose": "Transparent"
  },
  {
    "keyCode": 76,
    "label": "DEL"
  },
  {
    "keyCode": 65535,
    "label": "",
    "extraLabel": "TRANS",
    "verbose": "Transparent"
  },
  {
    "keyCode": 65535,
    "label": "",
    "extraLabel": "TRANS",
    "verbose": "Transparent"
  },
  {
    "keyCode": 65535,
    "label": "",
    "extraLabel": "TRANS",
    "verbose": "Transparent"
  },
  {
    "keyCode": 65535,
    "label": "",
    "extraLabel": "TRANS",
    "verbose": "Transparent"
  },
  {
    "keyCode": 65535,
    "label": "",
    "extraLabel": "TRANS",
    "verbose": "Transparent"
  },
  {
    "keyCode": 65535,
    "label": "",
    "extraLabel": "TRANS",
    "verbose": "Transparent"
  },
  {
    "keyCode": 65535,
    "label": "",
    "extraLabel": "TRANS",
    "verbose": "Transparent"
  },
  {
    "keyCode": 65535,
    "label": "",
    "extraLabel": "TRANS",
    "verbose": "Transparent"
  },
  {
    "keyCode": 65535,
    "label": "",
    "extraLabel": "TRANS",
    "verbose": "Transparent"
  },
  {
    "keyCode": 65535,
    "label": "",
    "extraLabel": "TRANS",
    "verbose": "Transparent"
  },
  {
    "keyCode": 65535,
    "label": "",
    "extraLabel": "TRANS",
    "verbose": "Transparent"
  },
  {
    "keyCode": 65535,
    "label": "",
    "extraLabel": "TRANS",
    "verbose": "Transparent"
  },
  {
    "keyCode": 65535,
    "label": "",
    "extraLabel": "TRANS",
    "verbose": "Transparent"
  },
  {
    "keyCode": 65535,
    "label": "",
    "extraLabel": "TRANS",
    "verbose": "Transparent"
  },
  {
    "keyCode": 65535,
    "label": "",
    "extraLabel": "TRANS",
    "verbose": "Transparent"
  },
  {
    "keyCode": 17152,
    "label": "NEXT",
    "extraLabel": "LEDEFF."
  },
  {
    "keyCode": 65535,
    "label": "",
    "extraLabel": "TRANS",
    "verbose": "Transparent"
  },
  {
    "keyCode": 65535,
    "label": "",
    "extraLabel": "TRANS",
    "verbose": "Transparent"
  },
  {
    "keyCode": 65535,
    "label": "",
    "extraLabel": "TRANS",
    "verbose": "Transparent"
  },
  {
    "keyCode": 65535,
    "label": "",
    "extraLabel": "TRANS",
    "verbose": "Transparent"
  },
  {
    "keyCode": 65535,
    "label": "",
    "extraLabel": "TRANS",
    "verbose": "Transparent"
  },
  {
    "keyCode": 65535,
    "label": "",
    "extraLabel": "TRANS",
    "verbose": "Transparent"
  },
  {
    "keyCode": 65535,
    "label": "",
    "extraLabel": "TRANS",
    "verbose": "Transparent"
  },
  {
    "keyCode": 65535,
    "label": "",
    "extraLabel": "TRANS",
    "verbose": "Transparent"
  },
  {
    "keyCode": 65535,
    "label": "",
    "extraLabel": "TRANS",
    "verbose": "Transparent"
  },
  {
    "keyCode": 65535,
    "label": "",
    "extraLabel": "TRANS",
    "verbose": "Transparent"
  },
  {
    "keyCode": 65535,
    "label": "",
    "extraLabel": "TRANS",
    "verbose": "Transparent"
  },
  {
    "keyCode": 65535,
    "label": "",
    "extraLabel": "TRANS",
    "verbose": "Transparent"
  },
  {
    "keyCode": 65535,
    "label": "",
    "extraLabel": "TRANS",
    "verbose": "Transparent"
  },
  {
    "keyCode": 65535,
    "label": "",
    "extraLabel": "TRANS",
    "verbose": "Transparent"
  },
  {
    "keyCode": 65535,
    "label": "",
    "extraLabel": "TRANS",
    "verbose": "Transparent"
  },
  {
    "keyCode": 65535,
    "label": "",
    "extraLabel": "TRANS",
    "verbose": "Transparent"
  },
  {
    "keyCode": 65535,
    "label": "",
    "extraLabel": "TRANS",
    "verbose": "Transparent"
  },
  {
    "keyCode": 65535,
    "label": "",
    "extraLabel": "TRANS",
    "verbose": "Transparent"
  },
  {
    "keyCode": 65535,
    "label": "",
    "extraLabel": "TRANS",
    "verbose": "Transparent"
  },
  {
    "keyCode": 65535,
    "label": "",
    "extraLabel": "TRANS",
    "verbose": "Transparent"
  },
  {
    "keyCode": 65535,
    "label": "",
    "extraLabel": "TRANS",
    "verbose": "Transparent"
  },
  {
    "keyCode": 65535,
    "label": "",
    "extraLabel": "TRANS",
    "verbose": "Transparent"
  },
  {
    "keyCode": 65535,
    "label": "",
    "extraLabel": "TRANS",
    "verbose": "Transparent"
  },
  {
    "keyCode": 65535,
    "label": "",
    "extraLabel": "TRANS",
    "verbose": "Transparent"
  },
  {
    "keyCode": 65535,
    "label": "",
    "extraLabel": "TRANS",
    "verbose": "Transparent"
  },
  {
    "keyCode": 65535,
    "label": "",
    "extraLabel": "TRANS",
    "verbose": "Transparent"
  },
  {
    "keyCode": 65535,
    "label": "",
    "extraLabel": "TRANS",
    "verbose": "Transparent"
  },
  {
    "keyCode": 65535,
    "label": "",
    "extraLabel": "TRANS",
    "verbose": "Transparent"
  },
  {
    "keyCode": 65535,
    "label": "",
    "extraLabel": "TRANS",
    "verbose": "Transparent"
  },
  {
    "keyCode": 65535,
    "label": "",
    "extraLabel": "TRANS",
    "verbose": "Transparent"
  },
  {
    "keyCode": 65535,
    "label": "",
    "extraLabel": "TRANS",
    "verbose": "Transparent"
  },
  {
    "keyCode": 65535,
    "label": "",
    "extraLabel": "TRANS",
    "verbose": "Transparent"
  },
  {
    "keyCode": 65535,
    "label": "",
    "extraLabel": "TRANS",
    "verbose": "Transparent"
  },
  {
    "keyCode": 65535,
    "label": "",
    "extraLabel": "TRANS",
    "verbose": "Transparent"
  },
  {
    "keyCode": 65535,
    "label": "",
    "extraLabel": "TRANS",
    "verbose": "Transparent"
  },
  {
    "keyCode": 65535,
    "label": "",
    "extraLabel": "TRANS",
    "verbose": "Transparent"
  },
  {
    "keyCode": 65535,
    "label": "",
    "extraLabel": "TRANS",
    "verbose": "Transparent"
  },
  {
    "keyCode": 65535,
    "label": "",
    "extraLabel": "TRANS",
    "verbose": "Transparent"
  },
  {
    "keyCode": 65535,
    "label": "",
    "extraLabel": "TRANS",
    "verbose": "Transparent"
  },
  {
    "keyCode": 65535,
    "label": "",
    "extraLabel": "TRANS",
    "verbose": "Transparent"
  },
  {
    "keyCode": 65535,
    "label": "",
    "extraLabel": "TRANS",
    "verbose": "Transparent"
  },
  {
    "keyCode": 65535,
    "label": "",
    "extraLabel": "TRANS",
    "verbose": "Transparent"
  },
  {
    "keyCode": 65535,
    "label": "",
    "extraLabel": "TRANS",
    "verbose": "Transparent"
  },
  {
    "keyCode": 65535,
    "label": "",
    "extraLabel": "TRANS",
    "verbose": "Transparent"
  },
  {
    "keyCode": 65535,
    "label": "",
    "extraLabel": "TRANS",
    "verbose": "Transparent"
  },
  {
    "keyCode": 65535,
    "label": "",
    "extraLabel": "TRANS",
    "verbose": "Transparent"
  },
  {
    "keyCode": 65535,
    "label": "",
    "extraLabel": "TRANS",
    "verbose": "Transparent"
  },
  {
    "keyCode": 65535,
    "label": "",
    "extraLabel": "TRANS",
    "verbose": "Transparent"
  }
]
