[
  {
    "r": 255,
    "g": 0,
    "b": 0,
    "rgb": "rgb(255, 0, 0)"
  },
  {
    "r": 255,
    "g": 0,
    "b": 36,
    "rgb": "rgb(255, 0, 36)"
  },
  {
    "r": 255,
    "g": 0,
    "b": 72,
    "rgb": "rgb(255, 0, 72)"
  },
  {
    "r": 255,
    "g": 0,
    "b": 109,
    "rgb": "rgb(255, 0, 109)"
  },
  {
    "r": 255,
    "g": 0,
    "b": 145,
    "rgb": "rgb(255, 0, 145)"
  },
  {
    "r": 255,
    "g": 0,
    "b": 182,
    "rgb": "rgb(255, 0, 182)"
  },
  {
    "r": 255,
    "g": 0,
    "b": 218,
    "rgb": "rgb(255, 0, 218)"
  },
  {
    "r": 255,
    "g": 0,
    "b": 255,
    "rgb": "rgb(255, 0, 255)"
  },
  {
    "r": 218,
    "g": 0,
    "b": 255,
    "rgb": "rgb(218, 0, 255)"
  },
  {
    "r": 182,
    "g": 0,
    "b": 255,
    "rgb": "rgb(182, 0, 255)"
  },
  {
    "r": 145,
    "g": 0,
    "b": 255,
    "rgb": "rgb(145, 0, 255)"
  },
  {
    "r": 109,
    "g": 0,
    "b": 255,
    "rgb": "rgb(109, 0, 255)"
  },
  {
    "r": 72,
    "g": 0,
    "b": 255,
    "rgb": "rgb(72, 0, 255)"
  },
  {
    "r": 36,
    "g": 0,
    "b": 255,
    "rgb": "rgb(36, 0, 255)"
  },
  {
    "r": 0,
    "g": 0,
    "b": 0,
    "rgb": "rgb(0, 0, 0)"
  },
  {
    "r": 0,
    "g": 0,
    "b": 255,
    "rgb": "rgb(0, 0, 255)"
  }
]
